Introduction to mnis • mnis
…
ref_parties()

ref_party_sub_types()

ref_photo_outputs()

ref_statuses()

ref_titles()

library(mnis)
x <- ref_titles(tidy = FALSE)
x

## # A tibble: 22 x 2
##    Title_Id Name  
##  * <chr>    <chr> 
##  1 22       Canon 
##  2 1        Dame  
##  3 2        Dr    
##  4 3        Hon   
##  5 4        Lady  
##  6 5        Lord  
##  7 6        Lt Col
##  8 21       Lt Gen
##  9 7        Miss  
## 10 8        Mr    
## # ... with 12 more rows

With the tidy parameter

library(mnis)
x <- ref_titles(tidy = TRUE)
x

## # A tibble: 22 x 2
##    title_id name  
##  * <chr>    <chr> 
##  1 22       Canon 
##  2 1        Dame  
##  3 2        Dr    
##  4 3        Hon   
##  5 4        Lady  
##  6 5        Lord  
##  7 6        Lt Col
##  8 21       Lt Gen
##  9 7        Miss  
## 10 8        Mr    
## # ... with 12 more rows
…
